%YAML 1.1
%TAG !u! tag:unity3d.com,2011:
--- !u!1045 &1
EditorBuildSettings:
  m_ObjectHideFlags: 0
  serializedVersion: 2
  m_Scenes:
  - enabled: 1
    path: Assets/Scenes/MainMenu.unity
    guid: 8d8a021fec1af07409b01ff20454d66b
  - enabled: 1
    path: Assets/Scenes/Niveles.unity
    guid: 2c4bbe1a821dcb7499c1c8230f947b74
  - enabled: 1
    path: Assets/Scenes/Nivel1.unity
    guid: 2cda990e2423bbf4892e6590ba056729
  - enabled: 1
    path: Assets/Scenes/Nivel2.unity
    guid: a759c2436163274448d80871887b2800
  - enabled: 1
    path: Assets/Scenes/Nivel3.unity
    guid: d7ae97a7399572846bc3b0ae0d0c451a
  - enabled: 1
    path: Assets/Scenes/Nivel4.unity
    guid: eedb51a34256ef845a4e9e822d4dbdf7
  - enabled: 1
    path: Assets/Scenes/Nivel5.unity
    guid: 15b7c74f4a05a774a8fcb0a1aba591e0
  - enabled: 1
    path: Assets/Scenes/Tutorial.unity
    guid: 74ea1ed9d0e626a4d868839d7161d24f
  - enabled: 1
    path: Assets/Scenes/Creditos.unity
    guid: 818bc7e7e2117174bb9a01b019d3917d
  m_configObjects: {}
